ruby_laser/ruby-data-2/tek0052CH1.csv

Model,MDO3052
Firmware Version,1.2
,
Waveform Type,ANALOG
Point Format,Y
Horizontal Units,s
Horizontal Scale,0.01
Horizontal Delay,0.03
Sample Interval,1.00E-05
Record Length,10000
Gating,0.0% to 100.0%
Probe Attenuation,1
Vertical Units,V
Vertical Offset,0
Vertical Scale,0.1
Vertical Position,-2.9
Vertical Min,-0.00770313
t (ms),#DIV/0!
t1/2 (ms),#DIV/0!
,
,
Label,
TIME (s),CH1 (V)
-2.00E-02,-0.00529688
-2.00E-02,-0.00495313
-2.00E-02,-0.00565625
-2.00E-02,-0.00496875
-2.00E-02,-0.005625
-2.00E-02,-0.00528125
-1.99E-02,-0.00496875
-1.99E-02,-0.00571875
-1.99E-02,-0.00517188
-1.99E-02,-0.00442188
-1.99E-02,-0.00421875
-1.99E-02,-0.00595313
-1.99E-02,-0.0058125
-1.99E-02,-0.0055
-1.99E-02,-0.00573438
-1.99E-02,-0.00484375
-1.98E-02,-0.00554688
-1.98E-02,-0.00557813
-1.98E-02,-0.00473438
-1.98E-02,-0.00428125
-1.98E-02,-0.00615625
-1.98E-02,-0.00573438
-1.98E-02,-0.00539063
-1.98E-02,-0.00495313
-1.98E-02,-0.00559375
-1.98E-02,-0.00446875
-1.97E-02,-0.00498438
-1.97E-02,-0.00484375
-1.97E-02,-0.00526563
-1.97E-02,-0.00571875
-1.97E-02,-0.00582813
-1.97E-02,-0.00553125
-1.97E-02,-0.0054375
-1.97E-02,-0.00453125
-1.97E-02,-0.0055
-1.97E-02,-0.00521875
-1.96E-02,-0.00515625
-1.96E-02,-0.00535937
-1.96E-02,-0.00517188
-1.96E-02,-0.00615625
-1.96E-02,-0.00515625
-1.96E-02,-0.00548438
-1.96E-02,-0.0059375
-1.96E-02,-0.00454688
-1.96E-02,-0.00482813
-1.96E-02,-0.00423438
-1.95E-02,-0.00428125
-1.95E-02,-0.004625
-1.95E-02,-0.00485937
-1.95E-02,-0.00535937
-1.95E-02,-0.00420313
-1.95E-02,-0.00470313
-1.95E-02,-0.0051875
-1.95E-02,-0.00528125
-1.95E-02,-0.00539063
-1.95E-02,-0.0049375
-1.94E-02,-0.00432813
-1.94E-02,-0.00503125
-1.94E-02,-0.00554688
-1.94E-02,-0.005875
-1.94E-02,-0.00517188
-1.94E-02,-0.00485937
-1.94E-02,-0.0044375
-1.94E-02,-0.00453125
-1.94E-02,-0.00528125
-1.94E-02,-0.00514063
-1.93E-02,-0.006125
-1.93E-02,-0.00604688
-1.93E-02,-0.00528125
-1.93E-02,-0.00571875
-1.93E-02,-0.00490625
-1.93E-02,-0.0053125
-1.93E-02,-0.00548438
-1.93E-02,-0.00595313
-1.93E-02,-0.00529688
-1.93E-02,-0.005
-1.92E-02,-0.004625
-1.92E-02,-0.004875
-1.92E-02,-0.00535937
-1.92E-02,-0.00495313
-1.92E-02,-0.00507813
-1.92E-02,-0.00603125
-1.92E-02,-0.00482813
-1.92E-02,-0.00484375
-1.92E-02,-0.00621875
-1.92E-02,-0.00429688
-1.91E-02,-0.00584375
-1.91E-02,-0.005625
-1.91E-02,-0.005625
-1.91E-02,-0.005
-1.91E-02,-0.0045625
-1.91E-02,-0.00529688
-1.91E-02,-0.00539063
-1.91E-02,-0.00490625
-1.91E-02,-0.00475
-1.91E-02,-0.00445313
-1.90E-02,-0.00507813
-1.90E-02,-0.00504688
-1.90E-02,-0.00509375
-1.90E-02,-0.00623438
-1.90E-02,-0.00529688
-1.90E-02,-0.00426563
-1.90E-02,-0.00517188
-1.90E-02,-0.00445313
-1.90E-02,-0.00492188
-1.90E-02,-0.0049375
-1.89E-02,-0.00465625
-1.89E-02,-0.00560938
-1.89E-02,-0.0050625
-1.89E-02,-0.00465625
-1.89E-02,-0.0051875
-1.89E-02,-0.004625
-1.89E-02,-0.0055
-1.89E-02,-0.00539063
-1.89E-02,-0.00528125
-1.89E-02,-0.005375
-1.88E-02,-0.0058125
-1.88E-02,-0.0060625
-1.88E-02,-0.004125
-1.88E-02,-0.00565625
-1.88E-02,-0.00496875
-1.88E-02,-0.00526563
-1.88E-02,-0.0050625
-1.88E-02,-0.00520313
-1.88E-02,-0.00515625
-1.88E-02,-0.00560938
-1.87E-02,-0.00478125
-1.87E-02,-0.005625
-1.87E-02,-0.00514063
-1.87E-02,-0.00535937
-1.87E-02,-0.00454688
-1.87E-02,-0.005625
-1.87E-02,-0.00492188
-1.87E-02,-0.00459375
-1.87E-02,-0.005375
-1.87E-02,-0.00498438
-1.86E-02,-0.00440625
-1.86E-02,-0.00528125
-1.86E-02,-0.00573438
-1.86E-02,-0.00496875
-1.86E-02,-0.00410938
-1.86E-02,-0.0051875
-1.86E-02,-0.00504688
-1.86E-02,-0.0051875
-1.86E-02,-0.00507813
-1.86E-02,-0.00364063
-1.85E-02,-0.00507813
-1.85E-02,-0.0050625
-1.85E-02,-0.00471875
-1.85E-02,-0.00560938
-1.85E-02,-0.00498438
-1.85E-02,-0.00454688
-1.85E-02,-0.00517188
-1.85E-02,-0.00576563
-1.85E-02,-0.0044375
-1.85E-02,-0.00540625
-1.84E-02,-0.00623438
-1.84E-02,-0.00560938
-1.84E-02,-0.00471875
-1.84E-02,-0.00492188
-1.84E-02,-0.0059375
-1.84E-02,-0.00515625
-1.84E-02,-0.00559375
-1.84E-02,-0.00489063
-1.84E-02,-0.00560938
-1.84E-02,-0.00482813
-1.83E-02,-0.00590625
-1.83E-02,-0.0055
-1.83E-02,-0.00539063
-1.83E-02,-0.00551563
-1.83E-02,-0.00507813
-1.83E-02,-0.0050625
-1.83E-02,-0.00539063
-1.83E-02,-0.00473438
-1.83E-02,-0.00557813
-1.83E-02,-0.00496875
-1.82E-02,-0.00571875
-1.82E-02,-0.00475
-1.82E-02,-0.0055
-1.82E-02,-0.0045
-1.82E-02,-0.00515625
-1.82E-02,-0.00473438
-1.82E-02,-0.004875
-1.82E-02,-0.00521875
-1.82E-02,-0.0051875
-1.82E-02,-0.00470313
-1.81E-02,-0.00640625
-1.81E-02,-0.00596875
-1.81E-02,-0.00539063
-1.81E-02,-0.00607813
-1.81E-02,-0.00473438
-1.81E-02,-0.00540625
-1.81E-02,-0.00504688
-1.81E-02,-0.00573438
-1.81E-02,-0.00495313
-1.81E-02,-0.004625
-1.80E-02,-0.00539063
-1.80E-02,-0.00548438
-1.80E-02,-0.00548438
-1.80E-02,-0.00498438
-1.80E-02,-0.00517188
-1.80E-02,-0.00526563
-1.80E-02,-0.00535937
-1.80E-02,-0.00551563
-1.80E-02,-0.00553125
-1.80E-02,-0.0055
-1.79E-02,-0.00548438
-1.79E-02,-0.00539063
-1.79E-02,-0.00482813
-1.79E-02,-0.00442188
-1.79E-02,-0.00603125
-1.79E-02,-0.00559375
-1.79E-02,-0.00515625
-1.79E-02,-0.0051875
-1.79E-02,-0.00476563
-1.79E-02,-0.0055625
-1.78E-02,-0.00517188
-1.78E-02,-0.00503125
-1.78E-02,-0.00496875
-1.78E-02,-0.00465625
-1.78E-02,-0.00559375
-1.78E-02,-0.0053125
-1.78E-02,-0.00529688
-1.78E-02,-0.0049375
-1.78E-02,-0.00584375
-1.78E-02,-0.00539063
-1.77E-02,-0.00475
-1.77E-02,-0.00529688
-1.77E-02,-0.00451563
-1.77E-02,-0.004625
-1.77E-02,-0.00582813
-1.77E-02,-0.00529688
-1.77E-02,-0.00595313
-1.77E-02,-0.00520313
-1.77E-02,-0.00514063
-1.77E-02,-0.00540625
-1.76E-02,-0.00573438
-1.76E-02,-0.0055
-1.76E-02,-0.0055
-1.76E-02,-0.00451563
-1.76E-02,-0.00496875
-1.76E-02,-0.00573438
-1.76E-02,-0.00417188
-1.76E-02,-0.00534375
-1.76E-02,-0.00548438
-1.76E-02,-0.00489063
-1.75E-02,-0.00454688
-1.75E-02,-0.004875
-1.75E-02,-0.00551563
-1.75E-02,-0.00460938
-1.75E-02,-0.00560938
-1.75E-02,-0.00504688
-1.75E-02,-0.00603125
-1.75E-02,-0.004875
-1.75E-02,-0.00573438
-1.75E-02,-0.006125
-1.74E-02,-0.00451563
-1.74E-02,-0.00485937
-1.74E-02,-0.00484375
-1.74E-02,-0.00539063
-1.74E-02,-0.00520313
-1.74E-02,-0.00420313
-1.74E-02,-0.005
-1.74E-02,-0.00509375
-1.74E-02,-0.00564063
-1.74E-02,-0.00548438
-1.73E-02,-0.00482813
-1.73E-02,-0.00442188
-1.73E-02,-0.0051875
-1.73E-02,-0.00520313
-1.73E-02,-0.00442188
-1.73E-02,-0.00509375
-1.73E-02,-0.00551563
-1.73E-02,-0.00582813
-1.73E-02,-0.00539063
-1.73E-02,-0.005375
-1.72E-02,-0.00567188
-1.72E-02,-0.00595313
-1.72E-02,-0.00485937
-1.72E-02,-0.0053125
-1.72E-02,-0.0050625
-1.72E-02,-0.0049375
-1.72E-02,-0.00507813
-1.72E-02,-0.00520313
-1.72E-02,-0.00598438
-1.72E-02,-0.00604688
-1.71E-02,-0.0049375
-1.71E-02,-0.00571875
-1.71E-02,-0.00484375
-1.71E-02,-0.00559375
-1.71E-02,-0.005
-1.71E-02,-0.00451563
-1.71E-02,-0.0053125
-1.71E-02,-0.00482813
-1.71E-02,-0.00484375
-1.71E-02,-0.00520313
-1.70E-02,-0.00484375
-1.70E-02,-0.00465625
-1.70E-02,-0.00560938
-1.70E-02,-0.004875
-1.70E-02,-0.0055
-1.70E-02,-0.00510938
-1.70E-02,-0.00545313
-1.70E-02,-0.00560938
-1.70E-02,-0.00475
-1.70E-02,-0.0051875
-1.69E-02,-0.00557813
-1.69E-02,-0.005375
-1.69E-02,-0.00535937
-1.69E-02,-0.00498438
-1.69E-02,-0.00517188
-1.69E-02,-0.005375
-1.69E-02,-0.00440625
-1.69E-02,-0.00457813
-1.69E-02,-0.00432813
-1.69E-02,-0.00473438
-1.68E-02,-0.00426563
-1.68E-02,-0.00439063
-1.68E-02,-0.00548438
-1.68E-02,-0.00515625
-1.68E-02,-0.00517188
-1.68E-02,-0.00548438
-1.68E-02,-0.0051875
-1.68E-02,-0.00529688
-1.68E-02,-0.00453125
-1.68E-02,-0.00460938
-1.67E-02,-0.00575
-1.67E-02,-0.004875
-1.67E-02,-0.00401563
-1.67E-02,-0.004625
-1.67E-02,-0.00539063
-1.67E-02,-0.0051875
-1.67E-02,-0.00507813
-1.67E-02,-0.00582813
-1.67E-02,-0.00528125
-1.67E-02,-0.00507813
-1.66E-02,-0.00573438
-1.66E-02,-0.0051875
-1.66E-02,-0.00485937
-1.66E-02,-0.00570313
-1.66E-02,-0.00492188
-1.66E-02,-0.00507813
-1.66E-02,-0.00489063
-1.66E-02,-0.00540625
-1.66E-02,-0.00482813
-1.66E-02,-0.00525
-1.65E-02,-0.00520313
-1.65E-02,-0.00507813
-1.65E-02,-0.00465625
-1.65E-02,-0.00528125
-1.65E-02,-0.00417188
-1.65E-02,-0.005375
-1.65E-02,-0.00539063
-1.65E-02,-0.00484375
-1.65E-02,-0.00454688
-1.65E-02,-0.00526563
-1.64E-02,-0.0056875
-1.64E-02,-0.00526563
-1.64E-02,-0.00484375
-1.64E-02,-0.00485937
-1.64E-02,-0.00464063
-1.64E-02,-0.00551563
-1.64E-02,-0.00484375
-1.64E-02,-0.00492188
-1.64E-02,-0.00465625
-1.64E-02,-0.00485937
-1.63E-02,-0.00528125
-1.63E-02,-0.0043125
-1.63E-02,-0.00582813
-1.63E-02,-0.00521875
-1.63E-02,-0.00507813
-1.63E-02,-0.00482813
-1.63E-02,-0.00526563
-1.63E-02,-0.00429688
-1.63E-02,-0.005
-1.63E-02,-0.00521875
-1.62E-02,-0.00601563
-1.62E-02,-0.00507813
-1.62E-02,-0.00540625
-1.62E-02,-0.00496875
-1.62E-02,-0.00559375
-1.62E-02,-0.005625
-1.62E-02,-0.00429688
-1.62E-02,-0.00484375
-1.62E-02,-0.00453125
-1.62E-02,-0.00471875
-1.61E-02,-0.00517188
-1.61E-02,-0.00532813
-1.61E-02,-0.00492188
-1.61E-02,-0.00439063
-1.61E-02,-0.00476563
-1.61E-02,-0.00560938
-1.61E-02,-0.00495313
-1.61E-02,-0.00540625
-1.61E-02,-0.005625
-1.61E-02,-0.00515625
-1.60E-02,-0.00548438
-1.60E-02,-0.00520313
-1.60E-02,-0.00571875
-1.60E-02,-0.00475
-1.60E-02,-0.00471875
-1.60E-02,-0.00507813
-1.60E-02,-0.00529688
-1.60E-02,-0.00396875
-1.60E-02,-0.00501563
-1.60E-02,-0.00540625
-1.59E-02,-0.0045625
-1.59E-02,-0.0051875
-1.59E-02,-0.00482813
-1.59E-02,-0.004625
-1.59E-02,-0.00496875
-1.59E-02,-0.004875
-1.59E-02,-0.0050625
-1.59E-02,-0.0050625
-1.59E-02,-0.00453125
-1.59E-02,-0.00592188
-1.58E-02,-0.00570313
-1.58E-02,-0.00540625
-1.58E-02,-0.00429688
-1.58E-02,-0.00484375
-1.58E-02,-0.00557813
-1.58E-02,-0.00584375
-1.58E-02,-0.00485937
-1.58E-02,-0.00546875
-1.58E-02,-0.00560938
-1.58E-02,-0.00567188
-1.57E-02,-0.00529688
-1.57E-02,-0.00514063
-1.57E-02,-0.00528125
-1.57E-02,-0.00584375
-1.57E-02,-0.00467188
-1.57E-02,-0.00484375
-1.57E-02,-0.00495313
-1.57E-02,-0.00440625
-1.57E-02,-0.00465625
-1.57E-02,-0.005375
-1.56E-02,-0.004625
-1.56E-02,-0.003875
-1.56E-02,-0.004875
-1.56E-02,-0.00454688
-1.56E-02,-0.0055
-1.56E-02,-0.00603125
-1.56E-02,-0.00432813
-1.56E-02,-0.00484375
-1.56E-02,-0.003875
-1.56E-02,-0.00517188
-1.55E-02,-0.00475
-1.55E-02,-0.00528125
-1.55E-02,-0.00496875
-1.55E-02,-0.00517188
-1.55E-02,-0.00440625
-1.55E-02,-0.0051875
-1.55E-02,-0.00492188
-1.55E-02,-0.00392188
-1.55E-02,-0.00551563
-1.55E-02,-0.00496875
-1.54E-02,-0.00357813
-1.54E-02,-0.00453125
-1.54E-02,-0.00529688
-1.54E-02,-0.00471875
-1.54E-02,-0.0058125
-1.54E-02,-0.0051875
-1.54E-02,-0.00571875
-1.54E-02,-0.00517188
-1.54E-02,-0.00515625
-1.54E-02,-0.0054375
-1.53E-02,-0.00504688
-1.53E-02,-0.00520313
-1.53E-02,-0.00495313
-1.53E-02,-0.00560938
-1.53E-02,-0.00473438
-1.53E-02,-0.0053125
-1.53E-02,-0.00439063
-1.53E-02,-0.0040625
-1.53E-02,-0.00520313
-1.53E-02,-0.00584375
-1.52E-02,-0.00540625
-1.52E-02,-0.0044375
-1.52E-02,-0.00626563
-1.52E-02,-0.00560938
-1.52E-02,-0.00471875
-1.52E-02,-0.00495313
-1.52E-02,-0.00514063
-1.52E-02,-0.00484375
-1.52E-02,-0.0058125
-1.52E-02,-0.0059375
-1.51E-02,-0.00553125
-1.51E-02,-0.00460938
-1.51E-02,-0.00554688
-1.51E-02,-0.00498438
-1.51E-02,-0.00575
-1.51E-02,-0.00560938
-1.51E-02,-0.00571875
-1.51E-02,-0.00495313
-1.51E-02,-0.00496875
-1.51E-02,-0.00575
-1.50E-02,-0.00471875
-1.50E-02,-0.00507813
-1.50E-02,-0.00523438
-1.50E-02,-0.00496875
-1.50E-02,-0.005375
-1.50E-02,-0.0043125
-1.50E-02,-0.0055
-1.50E-02,-0.00465625
-1.50E-02,-0.00507813
-1.50E-02,-0.00439063
-1.49E-02,-0.00475
-1.49E-02,-0.00532813
-1.49E-02,-0.0059375
-1.49E-02,-0.00504688
-1.49E-02,-0.00525
-1.49E-02,-0.005375
-1.49E-02,-0.00429688
-1.49E-02,-0.00484375
-1.49E-02,-0.00471875
-1.49E-02,-0.00539063
-1.48E-02,-0.00557813
-1.48E-02,-0.00585938
-1.48E-02,-0.0044375
-1.48E-02,-0.00439063
-1.48E-02,-0.0058125
-1.48E-02,-0.00540625
-1.48E-02,-0.00495313
-1.48E-02,-0.00471875
-1.48E-02,-0.00484375
-1.48E-02,-0.00592188
-1.47E-02,-0.00596875
-1.47E-02,-0.00503125
-1.47E-02,-0.0056875
-1.47E-02,-0.0058125
-1.47E-02,-0.00560938
-1.47E-02,-0.00485937
-1.47E-02,-0.00528125
-1.47E-02,-0.00467188
-1.47E-02,-0.004
-1.47E-02,-0.00542188
-1.46E-02,-0.0050625
-1.46E-02,-0.0050625
-1.46E-02,-0.0051875
-1.46E-02,-0.00498438
-1.46E-02,-0.00582813
-1.46E-02,-0.00560938
-1.46E-02,-0.00457813
-1.46E-02,-0.00496875
-1.46E-02,-0.00528125
-1.46E-02,-0.00434375
-1.45E-02,-0.00525
-1.45E-02,-0.0050625
-1.45E-02,-0.0050625
-1.45E-02,-0.00573438
-1.45E-02,-0.00507813
-1.45E-02,-0.00559375
-1.45E-02,-0.00539063
-1.45E-02,-0.0051875
-1.45E-02,-0.00582813
-1.45E-02,-0.004375
-1.44E-02,-0.00482813
-1.44E-02,-0.0049375
-1.44E-02,-0.00401563
-1.44E-02,-0.00595313
-1.44E-02,-0.00517188
-1.44E-02,-0.00554688
-1.44E-02,-0.00407813
-1.44E-02,-0.004625
-1.44E-02,-0.00482813
-1.44E-02,-0.00453125
-1.43E-02,-0.00507813
-1.43E-02,-0.0053125
-1.43E-02,-0.00485937
-1.43E-02,-0.00539063
-1.43E-02,-0.00592188
-1.43E-02,-0.00509375
-1.43E-02,-0.0051875
-1.43E-02,-0.004625
-1.43E-02,-0.005625
-1.43E-02,-0.00520313
-1.42E-02,-0.00539063
-1.42E-02,-0.00473438
-1.42E-02,-0.00492188
-1.42E-02,-0.00409375
-1.42E-02,-0.0050625
-1.42E-02,-0.0043125
-1.42E-02,-0.00507813
-1.42E-02,-0.00485937
-1.42E-02,-0.00509375
-1.42E-02,-0.00509375
-1.41E-02,-0.00495313
-1.41E-02,-0.00514063
-1.41E-02,-0.00551563
-1.41E-02,-0.0055
-1.41E-02,-0.0051875
-1.41E-02,-0.00432813
-1.41E-02,-0.0056875
-1.41E-02,-0.00528125
-1.41E-02,-0.0050625
-1.41E-02,-0.0059375
-1.40E-02,-0.00535937
-1.40E-02,-0.00451563
-1.40E-02,-0.00542188
-1.40E-02,-0.00501563
-1.40E-02,-0.00526563
-1.40E-02,-0.00507813
-1.40E-02,-0.00453125
-1.40E-02,-0.00570313
-1.40E-02,-0.00507813
-1.40E-02,-0.00515625
-1.39E-02,-0.00528125
-1.39E-02,-0.00507813
-1.39E-02,-0.00439063
-1.39E-02,-0.00429688
-1.39E-02,-0.00426563
-1.39E-02,-0.00517188
-1.39E-02,-0.00528125
-1.39E-02,-0.00495313
-1.39E-02,-0.00484375
-1.39E-02,-0.0059375
-1.38E-02,-0.00520313
-1.38E-02,-0.00473438
-1.38E-02,-0.0049375
-1.38E-02,-0.00503125
-1.38E-02,-0.00517188
-1.38E-02,-0.0055
-1.38E-02,-0.00510938
-1.38E-02,-0.00528125
-1.38E-02,-0.00517188
-1.38E-02,-0.00532813
-1.37E-02,-0.0045
-1.37E-02,-0.00546875
-1.37E-02,-0.004375
-1.37E-02,-0.00560938
-1.37E-02,-0.0051875
-1.37E-02,-0.0053125
-1.37E-02,-0.00484375
-1.37E-02,-0.0045
-1.37E-02,-0.00476563
-1.37E-02,-0.0049375
-1.36E-02,-0.00485937
-1.36E-02,-0.00539063
-1.36E-02,-0.00471875
-1.36E-02,-0.00439063
-1.36E-02,-0.00482813
-1.36E-02,-0.00482813
-1.36E-02,-0.0050625
-1.36E-02,-0.00526563
-1.36E-02,-0.0055
-1.36E-02,-0.00507813
-1.35E-02,-0.00570313
-1.35E-02,-0.00592188
-1.35E-02,-0.00507813
-1.35E-02,-0.00432813
-1.35E-02,-0.00498438
-1.35E-02,-0.00579688
-1.35E-02,-0.00528125
-1.35E-02,-0.0053125
-1.35E-02,-0.00615625
-1.35E-02,-0.0043125
-1.34E-02,-0.00528125
-1.34E-02,-0.00498438
-1.34E-02,-0.00517188
-1.34E-02,-0.00517188
-1.34E-02,-0.00570313
-1.34E-02,-0.00451563
-1.34E-02,-0.00542188
-1.34E-02,-0.00478125
-1.34E-02,-0.00496875
-1.34E-02,-0.00526563
-1.33E-02,-0.0053125
-1.33E-02,-0.00496875
-1.33E-02,-0.005125
-1.33E-02,-0.00417188
-1.33E-02,-0.0049375
-1.33E-02,-0.00473438
-1.33E-02,-0.00528125
-1.33E-02,-0.00520313
-1.33E-02,-0.00495313
-1.33E-02,-0.004625
-1.32E-02,-0.00482813
-1.32E-02,-0.00604688
-1.32E-02,-0.00560938
-1.32E-02,-0.00529688
-1.32E-02,-0.0044375
-1.32E-02,-0.0053125
-1.32E-02,-0.0050625
-1.32E-02,-0.00557813
-1.32E-02,-0.00542188
-1.32E-02,-0.00529688
-1.31E-02,-0.00584375
-1.31E-02,-0.00559375
-1.31E-02,-0.00526563
-1.31E-02,-0.0053125
-1.31E-02,-0.00496875
-1.31E-02,-0.00529688
-1.31E-02,-0.00442188
-1.31E-02,-0.0050625
-1.31E-02,-0.00484375
-1.31E-02,-0.00445313
-1.30E-02,-0.0055
-1.30E-02,-0.00517188
-1.30E-02,-0.00573438
-1.30E-02,-0.0048125
-1.30E-02,-0.00485937
-1.30E-02,-0.00453125
-1.30E-02,-0.00426563
-1.30E-02,-0.00482813
-1.30E-02,-0.0058125
-1.30E-02,-0.00517188
-1.29E-02,-0.006
-1.29E-02,-0.00585938
-1.29E-02,-0.00553125
-1.29E-02,-0.00548438
-1.29E-02,-0.00584375
-1.29E-02,-0.0045
-1.29E-02,-0.00457813
-1.29E-02,-0.00539063
-1.29E-02,-0.00520313
-1.29E-02,-0.00459375
-1.28E-02,-0.00460938
-1.28E-02,-0.00482813
-1.28E-02,-0.00509375
-1.28E-02,-0.005
-1.28E-02,-0.00460938
-1.28E-02,-0.00534375
-1.28E-02,-0.00546875
-1.28E-02,-0.0055
-1.28E-02,-0.00484375
-1.28E-02,-0.00485937
-1.27E-02,-0.00571875
-1.27E-02,-0.00573438
-1.27E-02,-0.0054375
-1.27E-02,-0.0048125
-1.27E-02,-0.00584375
-1.27E-02,-0.00434375
-1.27E-02,-0.00485937
-1.27E-02,-0.00517188
-1.27E-02,-0.00571875
-1.27E-02,-0.00423438
-1.26E-02,-0.00517188
-1.26E-02,-0.00551563
-1.26E-02,-0.00492188
-1.26E-02,-0.00539063
-1.26E-02,-0.00539063
-1.26E-02,-0.00517188
-1.26E-02,-0.00529688
-1.26E-02,-0.00475
-1.26E-02,-0.00421875
-1.26E-02,-0.00465625
-1.25E-02,-0.00553125
-1.25E-02,-0.00501563
-1.25E-02,-0.00475
-1.25E-02,-0.0050625
-1.25E-02,-0.005625
-1.25E-02,-0.00509375
-1.25E-02,-0.00471875
-1.25E-02,-0.00509375
-1.25E-02,-0.005375
-1.25E-02,-0.00528125
-1.24E-02,-0.00517188
-1.24E-02,-0.00453125
-1.24E-02,-0.00495313
-1.24E-02,-0.00520313
-1.24E-02,-0.00496875
-1.24E-02,-0.0049375
-1.24E-02,-0.00510938
-1.24E-02,-0.0050625
-1.24E-02,-0.00507813
-1.24E-02,-0.0055
-1.23E-02,-0.005125
-1.23E-02,-0.00475
-1.23E-02,-0.00557813
-1.23E-02,-0.0053125
-1.23E-02,-0.00503125
-1.23E-02,-0.00540625
-1.23E-02,-0.00453125
-1.23E-02,-0.0055
-1.23E-02,-0.00473438
-1.23E-02,-0.00539063
-1.22E-02,-0.00529688
-1.22E-02,-0.00528125
-1.22E-02,-0.005
-1.22E-02,-0.0049375
-1.22E-02,-0.0056875
-1.22E-02,-0.00439063
-1.22E-02,-0.00539063
-1.22E-02,-0.00471875
-1.22E-02,-0.00557813
-1.22E-02,-0.00479688
-1.21E-02,-0.00601563
-1.21E-02,-0.00560938
-1.21E-02,-0.0055
-1.21E-02,-0.00421875
-1.21E-02,-0.00464063
-1.21E-02,-0.00529688
-1.21E-02,-0.00528125
-1.21E-02,-0.00559375
-1.21E-02,-0.005
-1.21E-02,-0.00425
-1.20E-02,-0.0053125
-1.20E-02,-0.004625
-1.20E-02,-0.0041875
-1.20E-02,-0.00464063
-1.20E-02,-0.0045
-1.20E-02,-0.00528125
-1.20E-02,-0.00545313
-1.20E-02,-0.00476563
-1.20E-02,-0.0060625
-1.20E-02,-0.00571875
-1.19E-02,-0.00517188
-1.19E-02,-0.00529688
-1.19E-02,-0.00496875
-1.19E-02,-0.00475
-1.19E-02,-0.00529688
-1.19E-02,-0.00504688
-1.19E-02,-0.005
-1.19E-02,-0.00535937
-1.19E-02,-0.00453125
-1.19E-02,-0.0055
-1.18E-02,-0.00579688
-1.18E-02,-0.00553125
-1.18E-02,-0.00482813
-1.18E-02,-0.00507813
-1.18E-02,-0.00464063
-1.18E-02,-0.00517188
-1.18E-02,-0.0051875
-1.18E-02,-0.00520313
-1.18E-02,-0.00507813
-1.18E-02,-0.00514063
-1.17E-02,-0.00495313
-1.17E-02,-0.0051875
-1.17E-02,-0.00454688
-1.17E-02,-0.00571875
-1.17E-02,-0.00473438
-1.17E-02,-0.00559375
-1.17E-02,-0.00517188
-1.17E-02,-0.00485937
-1.17E-02,-0.0056875
-1.17E-02,-0.00503125
-1.16E-02,-0.0055
-1.16E-02,-0.00454688
-1.16E-02,-0.0055
-1.16E-02,-0.00515625
-1.16E-02,-0.00576563
-1.16E-02,-0.0058125
-1.16E-02,-0.00504688
-1.16E-02,-0.00578125
-1.16E-02,-0.00539063
-1.16E-02,-0.00495313
-1.15E-02,-0.00485937
-1.15E-02,-0.00529688
-1.15E-02,-0.00570313
-1.15E-02,-0.00510938
-1.15E-02,-0.00484375
-1.15E-02,-0.00454688
-1.15E-02,-0.00454688
-1.15E-02,-0.00579688
-1.15E-02,-0.00507813
-1.15E-02,-0.00520313
-1.14E-02,-0.00467188
-1.14E-02,-0.00540625
-1.14E-02,-0.00560938
-1.14E-02,-0.00571875
-1.14E-02,-0.0059375
-1.14E-02,-0.00482813
-1.14E-02,-0.00535937
-1.14E-02,-0.0049375
-1.14E-02,-0.00526563
-1.14E-02,-0.00429688
-1.13E-02,-0.00570313
-1.13E-02,-0.00409375
-1.13E-02,-0.004625
-1.13E-02,-0.00564063
-1.13E-02,-0.00548438
-1.13E-02,-0.00517188
-1.13E-02,-0.00571875
-1.13E-02,-0.00496875
-1.13E-02,-0.00535937
-1.13E-02,-0.00498438
-1.12E-02,-0.00528125
-1.12E-02,-0.00510938
-1.12E-02,-0.00532813
-1.12E-02,-0.00526563
-1.12E-02,-0.00464063
-1.12E-02,-0.00520313
-1.12E-02,-0.00464063
-1.12E-02,-0.00526563
-1.12E-02,-0.00529688
-1.12E-02,-0.00517188
-1.11E-02,-0.00473438
-1.11E-02,-0.00507813
-1.11E-02,-0.00551563
-1.11E-02,-0.00535937
-1.11E-02,-0.0053125
-1.11E-02,-0.00495313
-1.11E-02,-0.00542188
-1.11E-02,-0.0050625
-1.11E-02,-0.00415625
-1.11E-02,-0.00571875
-1.10E-02,-0.00560938
-1.10E-02,-0.004
-1.10E-02,-0.0050625
-1.10E-02,-0.00540625
-1.10E-02,-0.00526563
-1.10E-02,-0.00507813
-1.10E-02,-0.00460938
-1.10E-02,-0.00514063
-1.10E-02,-0.00510938
-1.10E-02,-0.00598438
-1.09E-02,-0.00571875
-1.09E-02,-0.00601563
-1.09E-02,-0.00529688
-1.09E-02,-0.00529688
-1.09E-02,-0.00540625
